// Jest Snapshot v1, https://goo.gl/fbAQLP

exports[`Reducer: types should handle FETCH_TYPES_ERROR 1`] = `
Object {
  "errors": "Error",
  "isError": true,
  "isLoading": false,
  "isSuccess": false,
}
`;

exports[`Reducer: types should handle FETCH_TYPES_REQUEST 1`] = `
Object {
  "isLoading": true,
}
`;

exports[`Reducer: types should handle FETCH_TYPES_SUCCESS 1`] = `
Object {
  "data": Array [
    Object {
      "name": "normal",
      "url": "http://pokeapi.co/api/v2/type/1/",
    },
  ],
  "isError": false,
  "isLoading": false,
  "isSuccess": true,
}
`;

exports[`Reducer: types should return initial type state 1`] = `
Object {
  "data": Array [],
  "errors": Array [],
  "isError": false,
  "isLoading": false,
  "isSuccess": false,
}
`;
