// Jest Snapshot v1, https://goo.gl/fbAQLP

exports[`SearchBar 1`] = `
<form
  className="ant-form ant-form-inline pokemon-search"
  onSubmit={[Function]}
>
  <div
    className="ant-row ant-form-item"
    style={undefined}
  >
    <div
      className="ant-form-item-control-wrapper"
    >
      <div
        className="ant-form-item-control "
      >
        <span
          className="ant-input-search ant-input-affix-wrapper"
          style={
            Object {
              "width": 200,
            }
          }
        >
          <input
            className="ant-input ant-input-lg"
            disabled={false}
            onChange={[Function]}
            onKeyDown={[Function]}
            placeholder="Search..."
            size="large"
            style={null}
            type="text"
          />
          <span
            className="ant-input-suffix"
          >
            <i
              className="anticon anticon-search ant-input-search-icon"
              onClick={[Function]}
            />
          </span>
        </span>
      </div>
    </div>
  </div>
</form>
`;
